{
	"id": "c49c7e27-9c30-444a-ab7b-34b6044a6b7b",
	"name": "Reign backend test",
	"values": [
		{
			"key": "access_token",
			"value": "",
			"enabled": true
		}
	],
	"_postman_variable_scope": "environment",
	"_postman_exported_at": "2021-10-09T22:12:32.500Z",
	"_postman_exported_using": "Postman/7.36.1"
}